{
    "Categories": "Qt;KDE;X-KDE-settings-hardware;",
    "KPlugin": {
        "Description": "Mouse Controls",
        "Description[ca]": "Controls del ratolí",
        "Description[hu]": "Irányítás az egérrel",
        "Description[nl]": "Muisbesturing",
        "Description[sl]": "Nadzor miške",
        "Description[sv]": "Musstyrning",
        "Description[uk]": "Керування мишею",
        "Description[vi]": "Các điều khiển chuột",
        "Description[x-test]": "xxMouse Controlsxx",
        "Icon": "preferences-desktop-mouse",
        "Name": "Mouse",
        "Name[af]": "Muis",
        "Name[ar]": "الفأرة",
        "Name[ast]": "Mur",
        "Name[az]": "Siçan",
        "Name[be@latin]": "Myš",
        "Name[be]": "Мыш",
        "Name[bg]": "Мишка",
        "Name[bn]": "মাউস",
        "Name[bn_IN]": "মাউস",
        "Name[br]": "Logodenn",
        "Name[bs]": "Miš",
        "Name[ca@valencia]": "Ratolí",
        "Name[ca]": "Ratolí",
        "Name[cs]": "Myš",
        "Name[csb]": "Mësz",
        "Name[cy]": "Llygoden",
        "Name[da]": "Mus",
        "Name[de]": "Maus",
        "Name[el]": "Ποντίκι",
        "Name[en_GB]": "Mouse",
        "Name[eo]": "Muso",
        "Name[es]": "Ratón",
        "Name[et]": "Hiir",
        "Name[eu]": "Sagua",
        "Name[fa]": "موشی",
        "Name[fi]": "Hiiri",
        "Name[fr]": "Souris",
        "Name[fy]": "Mûs",
        "Name[ga]": "Luch",
        "Name[gl]": "Rato",
        "Name[gu]": "માઉસ",
        "Name[he]": "עכבר",
        "Name[hi]": "माउस",
        "Name[hne]": "मुसुवा",
        "Name[hr]": "Miš",
        "Name[hsb]": "Myš",
        "Name[hu]": "Egér",
        "Name[ia]": "Mus",
        "Name[id]": "Mouse",
        "Name[is]": "Mús",
        "Name[it]": "Mouse",
        "Name[ja]": "マウス",
        "Name[ka]": "თაგვი",
        "Name[kk]": "Тышқан",
        "Name[km]": "កណ្ដុរ",
        "Name[kn]": "ಮೂಷಕ (ಮೌಸ್)",
        "Name[ko]": "마우스",
        "Name[ku]": "Mişk",
        "Name[lt]": "Pelė",
        "Name[lv]": "Pele",
        "Name[mai]": "माउस",
        "Name[mk]": "Глушец",
        "Name[ml]": "മൌസ്",
        "Name[mr]": "माऊस",
        "Name[ms]": "Tetikus",
        "Name[nb]": "Mus",
        "Name[nds]": "Muus",
        "Name[ne]": "माउस",
        "Name[nl]": "Muis",
        "Name[nn]": "Mus",
        "Name[oc]": "Mirga",
        "Name[or]": "ମାଉସ",
        "Name[pa]": "ਮਾਊਸ",
        "Name[pl]": "Mysz",
        "Name[pt]": "Rato",
        "Name[pt_BR]": "Mouse",
        "Name[ro]": "Maus",
        "Name[ru]": "Мышь",
        "Name[se]": "Sáhpán",
        "Name[si]": "මවුසය",
        "Name[sk]": "Myš",
        "Name[sl]": "Miška",
        "Name[sr@ijekavian]": "Миш",
        "Name[sr@ijekavianlatin]": "Miš",
        "Name[sr@latin]": "Miš",
        "Name[sr]": "Миш",
        "Name[sv]": "Mus",
        "Name[ta]": "சுட்டி",
        "Name[te]": "మౌస్",
        "Name[tg]": "Муш",
        "Name[th]": "เมาส์",
        "Name[tr]": "Fare",
        "Name[ug]": "چاشقىنەك",
        "Name[uk]": "Мишка",
        "Name[uz@cyrillic]": "Сичқонча",
        "Name[uz]": "Sichqoncha",
        "Name[vi]": "Chuột",
        "Name[wa]": "Sori",
        "Name[x-test]": "xxMousexx",
        "Name[xh]": "Mouse",
        "Name[zh_CN]": "鼠标",
        "Name[zh_TW]": "滑鼠",
        "ServiceTypes": [
            "KCModule"
        ]
    },
    "X-DocPath": "kcontrol/mouse/index.html",
    "X-KDE-Init-Phase": "0",
    "X-KDE-Init-Symbol": "mouse",
    "X-KDE-Keywords": "mouse,mouse acceleration,mouse threshold,mouse buttons,selection,cursor shape,input devices,button mapping,click,icons,feedback,pointers,drag,double click,single click,right click,left click,middle click,left mapping,right handed,left handed,pointer device,mouse wheel,mouse emulation,mouse navigation,mouse drag and drop,mouse scrolling,mouse sensitivity,cursor sensitivity,hardware,cursor,scrolling speed,flat,adaptive,scroll wheel,invert scroll direction,reverse scroll,reversed scrolling,acceleration profile",
    "X-KDE-Keywords[az]": "siçan,siçan sürətləndiricisi,siçan izi,siçan düymələri,seçin,kursor,kursor forması,daxiletmə qurğuları,düymələrin yeri,klik,nişanlar,rəy bildirişi, göstəricilər,tutmaq,ikili klik,tək klik,sağ klik,sol klik,orta klik,sol yerləşmə, sağ əl,sol əl,göstərici cihazı,siçan diyircəyi,siçan emulyatoru,siçan istiqaməti,siçanla tutmaq və atmaq,siçanla sürüşdürmə,siçan həssaslığı,kursor həssaslığı,avadanlıq,kursor,sürüşdürmə sürəti,hamar,uyğunlaşdırılmış,sürüşdürmə dövrəsi,əks istiqamətdə sürüşdürmə,tərsinə sürüşdürmə,sürətləndirici profili",
    "X-KDE-Keywords[ca]": "ratolí,acceleració de ratolí,llindar de ratolí,botons de ratolí,selecció,ombra de cursor,dispositius d'entrada,mapatge de botó,clic,icones,reacció,apuntadors,arrossegar,doble clic,clic únic,clic dret,clic esquerre,clic del mig,mapatge esquerre,dretà,esquerrà,dispositiu apuntador,roda de ratolí,roda del ratolí,emulació de ratolí,navegació amb ratolí,arrossegar i deixar anar amb ratolí,desplaçament amb ratolí,sensibilitat de ratolí,sensibilitat de cursor,maquinari,cursor,velocitat de desplaçament,pla,adaptatiu,roda de desplaçament,inverteix la direcció de desplaçament,direcció de desplaçament invertida,perfil d'acceleració",
    "X-KDE-Keywords[fr]": "souris, accélération de la souris, seuil de la souris, boutons de la souris, sélection, forme du curseur, périphériques d'entrée, affectation des boutons, clic, icônes, retour des utilisateurs, pointeurs, glisser, double clic, simple clic, clic gauche, clic droit, clic central, correspondance en gaucher, droitier, gaucher, périphérique de pointage, molette de souris, émulation de la souris, navigation de la souris, glisser-déposer, défilement avec la souris, sensibilité de la souris, sensibilité du pointeur, matériel, pointeur, vitesse de défilement, homogène, adaptatif, molette de défilement, direction inversée de défilement, profil d'accélération",
    "X-KDE-Keywords[hu]": "egér,egérgyorsítás,egérküszöb,egérgombok,kijelölés,kurzorforma,beviteli eszközök,gombhozzárendelés,kattintás,ikonok,visszajelzés,mutatók,fogás,dupla kattintás,egyszeres kattintás,jobb gombbal kattintás,bal gombbal kattintás,középső gombbal kattintás,bal gomb leképezés,jobbkezes,balkezes,mutató eszköz,egérgörgő,egéremuláció,egérnavigáció,egér fogd és vidd,egérgörgetés,egér érzékenység,kurzor érzékenység,hardver,kurzor,görgetési sebesség,sima,adaptív,görgő,görgetési irány megfordítása,görgetés megfordítása,fordított görgetés,gyorsítási profil",
    "X-KDE-Keywords[ko]": "마우스,마우스 가속,마우스 단추,마우스 버튼,선택,커서 모양,입력 장치,단추 매핑,버튼 매핑,클릭,아이콘,피드백,포인터,드래그,두 번 클릭,더블 클릭,한 번 클릭,싱글 클릭,왼쪽 클릭,오른쪽 클릭,가운데 클릭,마우스 휠,포인터 장치,마우스 탐색, 마우스 스크롤,커서 감도,하드웨어,커서,스크롤 속도,스크롤 휠,스크롤 방향,스크롤 방향 반전,가속 프로필,감도,스크롤,휠,스크롤 반전,역방향 스크롤,가속 프로필",
    "X-KDE-Keywords[nl]": "muis,muisversnelling,muisdrempel,muisknoppen,selectie,cursorvorm,invoerapparaten,knoppenmapping,klik,pictogrammen,terugkoppeling,aanwijzer,slepen,dubbelklik,klik,mapping,rechtshandig,linkshandig,aanwijsapparaat,muiswiel,muisemulatie,muisnavigatie,slepen en loslaten met muis,schuiven met de muis,muisgevoeligheid,cursorgevoeligheid,hardware,cursor,schuifsnelheid,plat,adaptief,schuifwiel,schuifrichting omdraaien,omgekeerd schuiven,versnellingsprofiel",
    "X-KDE-Keywords[sl]": "miška,pospešek miške,prag miške,gumbi miške,miškini gumbi,izbor,oblika kazalca, oblika kazalke,vhodne naprave,preslikava gumbov,klik,ikone,povratne informacije,odziv,kazalci,kazalke,vleka,dvojni klik,dvoklik,enojni klik,desni klik,levi klik,srednji klik,preslikava,desničar,levičar,kazalna naprava,kolešček miške,miškin kolešček,posnemanje miške,krmarjenje z miško,vleka in spuščanje z miško,pomikanje z miško,občutljivost miške,miškina občutljivost,strojna oprema,kazalka,hitrost pomikanja,raven,prilagodljiv,premikanje miške s številčnico,posnemanje s številčnico,obrnjen pomik,obrnjeno pomikanje,profil pospeševanja",
    "X-KDE-Keywords[sv]": "mus,musacceleration,muströskel,musknappar,val,pekarform,indataenheter,knappavbildning,klick,ikoner,återmatning,pekare,dra,dubbelklick,enkelklick,högerklick,vänsterklick,mittenklick,vänster avbildning,högerhänt,vänsterhänt,pekarenhet,mushjul,musemulering,musnavigering,mus drag och släpp,musrullning,muskänslighet,markörkänslighet,maskinvara,markör,rullningshastighet,enkel,adaptiv,rullhjul,invertera rullningsriktning,omvänd rullning,accelerationsprofil",
    "X-KDE-Keywords[uk]": "mouse,mouse acceleration,mouse threshold,mouse buttons,selection,cursor shape,input devices,button mapping,click,icons,feedback,pointers,drag,double click,single click,right click,left click,middle click,left mapping,right handed,left handed,pointer device,mouse wheel,mouse emulation,mouse navigation,mouse drag and drop,mouse scrolling,mouse sensitivity,cursor sensitivity,hardware,cursor,scrolling speed,flat,adaptive,scroll wheel,invert scroll direction,acceleration profile,reverse scroll,reversed scrolling,миша,прискорення,поріг,порогове значення,кнопка,вибір,вказівник,форма,введення,кнопки,клацання,піктограми,значки,іконки,супровід,вказівники,перетягування,подвійне клацання, одинарне клацання,відповідність,праворукий,шульга,лівша,пристрій вказівника,коліщатко миші,емуляція миші,імітація миші,навігація за допомогою миші,перетягування зі скиданням мишею,гортання мишею,чутливість миші,миша з цифровою панеллю,емуляція цифрової панелі миші,обладнання,вказівник,швидкість гортання,плоска,адаптивна,коліщатко гортання,інверсія напрямку гортання,профіль прискорення,обернене гортання,гортати обернено",
    "X-KDE-Keywords[x-test]": "xxmousexx,xxmouse accelerationxx,xxmouse thresholdxx,xxmouse buttonsxx,xxselectionxx,xxcursor shapexx,xxinput devicesxx,xxbutton mappingxx,xxclickxx,xxiconsxx,xxfeedbackxx,xxpointersxx,xxdragxx,xxdouble clickxx,xxsingle clickxx,xxright clickxx,xxleft clickxx,xxmiddle clickxx,xxleft mappingxx,xxright handedxx,xxleft handedxx,xxpointer devicexx,xxmouse wheelxx,xxmouse emulationxx,xxmouse navigationxx,xxmouse drag and dropxx,xxmouse scrollingxx,xxmouse sensitivityxx,xxcursor sensitivityxx,xxhardwarexx,xxcursorxx,xxscrolling speedxx,xxflatxx,xxadaptivexx,xxscroll wheelxx,xxinvert scroll directionxx,xxreverse scrollxx,xxreversed scrollingxx,xxacceleration profilexx",
    "X-KDE-ParentApp": "kcontrol",
    "X-KDE-System-Settings-Parent-Category": "input-devices",
    "X-KDE-Weight": 60
}
