{
    "KPlugin": {
        "Authors": [
            {
                "Email": "wengxt@gmail.com",
                "Name": "Weng Xuetian",
                "Name[ca]": "Weng Xuetian",
                "Name[hu]": "Weng Xuetian",
                "Name[nl]": "Weng Xuetian",
                "Name[sl]": "Weng Xuetian",
                "Name[sv]": "Weng Xuetian",
                "Name[uk]": "Weng Xuetian",
                "Name[vi]": "Weng Xuetian",
                "Name[x-test]": "xxWeng Xuetianxx"
            }
        ],
        "Category": "Language",
        "Description": "A generic input method panel",
        "Description[ca]": "Un plafó per al mètode d'entrada genèric",
        "Description[hu]": "Általános bevitelimód-panel",
        "Description[nl]": "Een paneel met een algemene invoermethode",
        "Description[sl]": "Plošča splošnega vnosnega načina",
        "Description[sv]": "En generell panel för inmatningsmetod",
        "Description[uk]": "Загальна панель методів введення",
        "Description[vi]": "Một bảng phương thức nhập chung",
        "Description[x-test]": "xxA generic input method panelxx",
        "EnabledByDefault": true,
        "Icon": "draw-freehand",
        "Id": "org.kde.plasma.kimpanel",
        "License": "GPL-2.0+",
        "Name": "Input Method Panel",
        "Name[ar]": "لوحة طريقة الدّخل",
        "Name[ast]": "Panel del métodu d'entrada",
        "Name[az]": "Daxiletmə metodu paneli",
        "Name[ca@valencia]": "Plafó del mètode d'entrada",
        "Name[ca]": "Plafó del mètode d'entrada",
        "Name[cs]": "Panel vstupních metod",
        "Name[da]": "Panel til input-metoder",
        "Name[de]": "Eingabemethoden",
        "Name[el]": "Πλαίσιο μεθόδου εισαγωγής",
        "Name[en_GB]": "Input Method Panel",
        "Name[es]": "Panel del método de entrada",
        "Name[et]": "Sisestusviisi paneel",
        "Name[eu]": "Sarrera metodoen panela",
        "Name[fi]": "Syöte­menetelmä­paneeli",
        "Name[fr]": "Panneau de méthode de saisie",
        "Name[gl]": "Panel de métodos de entrada",
        "Name[he]": "לוח שיטת הקלט",
        "Name[hu]": "Bevitelimód-panel",
        "Name[ia]": "Pannello de methodo de insertar",
        "Name[id]": "Panel Metode Input",
        "Name[it]": "Pannello dei metodi di inserimento",
        "Name[ko]": "입력기 패널",
        "Name[lt]": "Įvesties metodų skydelis",
        "Name[nb]": "Skrivemetode-rute",
        "Name[nl]": "Invoermethodepaneel",
        "Name[nn]": "Skrivesystem-panel",
        "Name[pa]": "ਇਨਪੁੱਟ ਢੰਗ ਪੈਨਲ",
        "Name[pl]": "Panel metody wprowadzania",
        "Name[pt]": "Painel de Introdução de Dados",
        "Name[pt_BR]": "Painel do método de introdução de caracteres",
        "Name[ro]": "Panou pentru metodă de intrare",
        "Name[ru]": "Панель метода ввода",
        "Name[sk]": "Panel vstupnej metódy",
        "Name[sl]": "Pult vnosnega načina",
        "Name[sr@ijekavian]": "Панел метода уноса",
        "Name[sr@ijekavianlatin]": "Panel metoda unosa",
        "Name[sr@latin]": "Panel metoda unosa",
        "Name[sr]": "Панел метода уноса",
        "Name[sv]": "Panel for inmatningsmetod",
        "Name[ta]": "உள்ளீடு முறை பலகை",
        "Name[tr]": "Giriş Yöntemi Paneli",
        "Name[uk]": "Панель способів введення",
        "Name[vi]": "Bảng phương thức nhập",
        "Name[x-test]": "xxInput Method Panelxx",
        "Name[zh_CN]": "输入法面板",
        "Name[zh_TW]": "輸入法面板",
        "ServiceTypes": [
            "Plasma/Applet"
        ],
        "Version": "1.0",
        "Website": "https://www.kde.org/plasma-desktop"
    },
    "Keywords": "Input;IM;",
    "Keywords[ar]": "إدخال;لوحة;مفاتيح;",
    "Keywords[az]": "Daxiletmə;Daxiletmə Metodu;",
    "Keywords[ca@valencia]": "Entrada;Input;IM;",
    "Keywords[ca]": "Entrada;Input;IM;",
    "Keywords[cs]": "Vstup;IM;",
    "Keywords[da]": "Input;IM;",
    "Keywords[de]": "Input;IM;",
    "Keywords[el]": "Είσοδος;IM;",
    "Keywords[en_GB]": "Input;IM;",
    "Keywords[es]": "Entrada;ME;",
    "Keywords[et]": "Sisestusviis;IM;",
    "Keywords[eu]": "Input;sarrera;IM;SM;",
    "Keywords[fi]": "Input;IM;Syöte;Syötemenetelmä;",
    "Keywords[fr]": "Entrée;Méthode de saisie;",
    "Keywords[gl]": "Entrada;ME;Input;IM;",
    "Keywords[hu]": "Bevitel;IM;",
    "Keywords[ia]": "Input;IM;",
    "Keywords[id]": "Input;IM;",
    "Keywords[it]": "Inserimento;IM;",
    "Keywords[ko]": "Input;IM;입력;입력기;",
    "Keywords[lt]": "Įvestis;TP;Tikralaikiai pokalbiai;Ivestis;Įvedimas;Ivedimas;",
    "Keywords[nb]": "Input;IM;",
    "Keywords[nl]": "Invoer;IM;",
    "Keywords[nn]": "Inndata;skrivesystem;IM;",
    "Keywords[pa]": "ਇਨਪੁੱਟ;ਇੰਪੁੱਟ;",
    "Keywords[pl]": "Wprowadzanie;IM;",
    "Keywords[pt]": "Entrada;IM;",
    "Keywords[pt_BR]": "Entrada;Introdução de caracteres;",
    "Keywords[ro]": "Input;IM;intrare;",
    "Keywords[ru]": "ввод;метод ввода;",
    "Keywords[sk]": "Vstup;IM;",
    "Keywords[sl]": "Vnos;VN;",
    "Keywords[sr@ijekavian]": "Input;IM;унос;улаз;ИМметод уноса;",
    "Keywords[sr@ijekavianlatin]": "Input;IM;unos;ulaz;IMmetod unosa;",
    "Keywords[sr@latin]": "Input;IM;unos;ulaz;IMmetod unosa;",
    "Keywords[sr]": "Input;IM;унос;улаз;ИМметод уноса;",
    "Keywords[sv]": "Inmatning;IM;",
    "Keywords[ta]": "Input;IM;உள்ளீடு;உள்ளீட்டு;மொழி;தட்டச்சு;விசை;",
    "Keywords[tr]": "Giriş;IM;",
    "Keywords[uk]": "Input;IM;введення;способи введення;ввід;",
    "Keywords[vi]": "Input;IM;nhập;phương thức nhập;",
    "Keywords[x-test]": "xxInputxx;xxIMxx;",
    "Keywords[zh_CN]": "Input;IM;输入法;输入;",
    "Keywords[zh_TW]": "Input;IM;",
    "X-Plasma-API": "declarativeappletscript",
    "X-Plasma-MainScript": "ui/main.qml"
}
