{
    "KPlugin": {
        "Authors": [
            {
                "Email": "mart@kde.org",
                "Name": "Marco Martin",
                "Name[ca]": "Marco Martin",
                "Name[hu]": "Marco Martin",
                "Name[nl]": "Marco Martin",
                "Name[sl]": "Marco Martin",
                "Name[sv]": "Marco Martin",
                "Name[uk]": "Marco Martin",
                "Name[vi]": "Marco Martin",
                "Name[x-test]": "xxMarco Martinxx"
            }
        ],
        "Category": "Toolbox",
        "Description": "Manage Plasma panel",
        "Description[ca]": "Gestió del plafó del Plasma",
        "Description[hu]": "Plasma panel kezelése",
        "Description[nl]": "Plasmapaneel beheren",
        "Description[sl]": "Upravljanje plošče Plasme",
        "Description[sv]": "Hantera Plasma-panel",
        "Description[uk]": "Керування панеллю Плазми",
        "Description[vi]": "Quản lí bảng Plasma",
        "Description[x-test]": "xxManage Plasma panelxx",
        "EnabledByDefault": true,
        "Icon": "plasma",
        "Id": "org.kde.paneltoolbox",
        "License": "LGPLv2+",
        "Name": "Panel Toolbox",
        "Name[ar]": "صندوق أدوات اللوحة",
        "Name[az]": "Alətlər qutusu paneli",
        "Name[bs]": "Panel kutija sa alatom",
        "Name[ca@valencia]": "Quadre d'eines del plafó",
        "Name[ca]": "Quadre d'eines del plafó",
        "Name[cs]": "Nástroje panelu",
        "Name[da]": "Panelværktøjskasse",
        "Name[de]": "Werkzeugkasten für die Kontrollleiste",
        "Name[el]": "Εργαλεία πίνακα",
        "Name[en_GB]": "Panel Toolbox",
        "Name[es]": "Caja de herramientas del panel",
        "Name[et]": "Paneeli tööriistakast",
        "Name[eu]": "Paneleko tresna-kutxa",
        "Name[fi]": "Paneelin työkalupakki",
        "Name[fr]": "Boîte à outils de tableau de bord",
        "Name[gl]": "Caixa de ferramentas de panel",
        "Name[he]": "ארגז־הכלים של הלוח",
        "Name[hu]": "Panel eszköztár",
        "Name[ia]": "Instrumentario de pannello",
        "Name[id]": "Perkakas Panel",
        "Name[is]": "Verkfærasafn fyrir spjöld",
        "Name[it]": "Strumento per pannelli",
        "Name[ja]": "パネルツールボックス",
        "Name[kk]": "Панель құралдары",
        "Name[ko]": "패널 도구 상자",
        "Name[lt]": "Skydelio priemonių komplektas",
        "Name[mr]": "पटल साधने",
        "Name[nb]": "Panel-verktøykasse",
        "Name[nds]": "Paneel-Warktüüchkist",
        "Name[nl]": "Paneelhulpmiddelen",
        "Name[nn]": "Panelverktøykasse",
        "Name[pa]": "ਪੈਨਲ ਟੂਲਬਾਕਸ",
        "Name[pl]": "Przybornik panelu",
        "Name[pt]": "Barra do Painel",
        "Name[pt_BR]": "Barra de ferramentas painel",
        "Name[ro]": "Trusa de unelte a panoului",
        "Name[ru]": "Инструменты панели",
        "Name[sk]": "Nástroje panelu",
        "Name[sl]": "Orodjarna za pult",
        "Name[sr@ijekavian]": "Панелска алатница",
        "Name[sr@ijekavianlatin]": "Panelska alatnica",
        "Name[sr@latin]": "Panelska alatnica",
        "Name[sr]": "Панелска алатница",
        "Name[sv]": "Panelverktygslåda",
        "Name[ta]": "பலகை கருவிப்பெட்டி",
        "Name[tg]": "Қуттии абзорҳои лавҳа",
        "Name[tr]": "Panel Araç Kutusu",
        "Name[uk]": "Набір інструментів панелі",
        "Name[vi]": "Hộp công cụ bảng",
        "Name[x-test]": "xxPanel Toolboxxx",
        "Name[zh_CN]": "面板工具箱",
        "Name[zh_TW]": "面板工具盒",
        "ServiceTypes": [
            "Plasma/Generic"
        ],
        "Version": "0.1",
        "Website": "https://www.kde.org/plasma-desktop"
    },
    "X-KDE-ParentApp": "",
    "X-Plasma-MainScript": "ui/main.qml"
}
