{
    "KPlugin": {
        "Authors": [
            {
                "Email": "plasma-devel@kde.org",
                "Name": "The Plasma Team",
                "Name[ca]": "L'equip del Plasma",
                "Name[hu]": "A Plasma fejlesztői",
                "Name[nl]": "Het team van Plasma",
                "Name[sl]": "Ekipa Plasme",
                "Name[sv]": "Plasma-gruppen",
                "Name[uk]": "Команда розробників Плазми",
                "Name[vi]": "Đội ngũ Plasma",
                "Name[x-test]": "xxThe Plasma Teamxx"
            }
        ],
        "Category": "Windows and Tasks",
        "Description": "Switch between virtual desktops",
        "Description[ca]": "Commuta entre escriptoris virtuals",
        "Description[hu]": "Virtuális asztalok közötti váltásra szolgáló elem",
        "Description[nl]": "Schakel tussen virtuele bureaubladen",
        "Description[sl]": "Preklopi med navideznimi namizji",
        "Description[sv]": "Byt mellan virtuella skrivbord",
        "Description[uk]": "Перемкніть віртуальні стільниці",
        "Description[vi]": "Chuyển giữa các bàn làm việc ảo",
        "Description[x-test]": "xxSwitch between virtual desktopsxx",
        "EnabledByDefault": true,
        "Icon": "user-desktop",
        "Id": "org.kde.plasma.pager",
        "License": "GPL-2.0+",
        "Name": "Pager",
        "Name[af]": "Pager",
        "Name[ar]": "الأسطح",
        "Name[ast]": "Paxinador",
        "Name[az]": "İş Masası dəyişəni",
        "Name[be@latin]": "Stały",
        "Name[bg]": "Пейджър",
        "Name[bn]": "পেজার",
        "Name[bn_IN]": "পেজার",
        "Name[bs]": "Pejdžer",
        "Name[ca@valencia]": "Paginador",
        "Name[ca]": "Paginador",
        "Name[cs]": "Přepínač ploch",
        "Name[csb]": "Pager",
        "Name[da]": "Skrivebordsvælger",
        "Name[de]": "Arbeitsflächen-Umschalter",
        "Name[el]": "Πίνακας σελίδων",
        "Name[en_GB]": "Pager",
        "Name[eo]": "Paĝilo",
        "Name[es]": "Paginador",
        "Name[et]": "Peiler",
        "Name[eu]": "Bilagailua",
        "Name[fa]": "پی‌جو",
        "Name[fi]": "Sivutin",
        "Name[fr]": "Gestionnaire de bureaux",
        "Name[fy]": "Semafoan",
        "Name[ga]": "Brabhsálaí Leathanach",
        "Name[gl]": "Paxinador",
        "Name[gu]": "પેજર",
        "Name[he]": "Pager",
        "Name[hi]": "पेजर",
        "Name[hne]": "पेजर",
        "Name[hr]": "Pager",
        "Name[hsb]": "Listowar",
        "Name[hu]": "Asztalváltó",
        "Name[ia]": "Pager",
        "Name[id]": "Pager",
        "Name[is]": "Flettir",
        "Name[it]": "Cambiadesktop",
        "Name[ja]": "ページャ",
        "Name[kk]": "Ақтарғыш",
        "Name[km]": "Pager",
        "Name[kn]": "ಪುಟವೀಕ್ಷಕ (ಪೇಜರ್)",
        "Name[ko]": "호출기",
        "Name[ku]": "Rûpelker",
        "Name[lt]": "Puslapių perjungiklis",
        "Name[lv]": "Lapotājs",
        "Name[mai]": "पेजर",
        "Name[mk]": "Пејџер",
        "Name[ml]": "പേജര്‍",
        "Name[mr]": "पेजर",
        "Name[nb]": "Skrivebordsbytter",
        "Name[nds]": "Schriefdisch-Översicht",
        "Name[ne]": "पेजर",
        "Name[nl]": "Pager",
        "Name[nn]": "Skrivebords­bytar",
        "Name[oc]": "Recebedor d'apèl",
        "Name[or]": "ପେଜର",
        "Name[pa]": "ਪੇਜ਼ਰ",
        "Name[pl]": "Przełącznik pulpitów",
        "Name[pt]": "Paginador",
        "Name[pt_BR]": "Paginador",
        "Name[ro]": "Paginator",
        "Name[ru]": "Переключение рабочих столов",
        "Name[se]": "Čállinbeavdemolsojeaddj",
        "Name[si]": "පේජරය",
        "Name[sk]": "Prepínač plôch",
        "Name[sl]": "Pozivnik",
        "Name[sr@ijekavian]": "листач",
        "Name[sr@ijekavianlatin]": "listač",
        "Name[sr@latin]": "listač",
        "Name[sr]": "листач",
        "Name[sv]": "Skrivbordsvisning",
        "Name[ta]": "பணிமேடை மாற்றி",
        "Name[te]": "పేజర్",
        "Name[tg]": "Пейҷер",
        "Name[th]": "สลับหน้าพื้นที่ทำงาน",
        "Name[tr]": "Sayfalayıcı",
        "Name[ug]": "چاقىرغۇ",
        "Name[uk]": "Пейджер",
        "Name[vi]": "Tổng quan",
        "Name[wa]": "Pager",
        "Name[x-test]": "xxPagerxx",
        "Name[zh_CN]": "调度器",
        "Name[zh_TW]": "虛擬桌面管理器",
        "ServiceTypes": [
            "Plasma/Applet"
        ],
        "Version": "4.0",
        "Website": "https://userbase.kde.org/Plasma/Pager"
    },
    "X-Plasma-API": "declarativeappletscript",
    "X-Plasma-MainScript": "ui/main.qml",
    "X-Plasma-Provides": [
        "org.kde.plasma.virtualdesktops"
    ]
}
